<?xml version="1.0" encoding="utf-8"?>
<!-- Generator: Adobe Illustrator 23.0.1, SVG Export Plug-In . SVG Version: 6.00 Build 0)  -->
<svg version="1.1" id="icon" xmlns="http://www.w3.org/2000/svg" x="0px" y="0px"
     width="10px" height="6px" viewBox="0 0 10 6" style="enable-background:new 0 0 10 6;" xml:space="preserve">
<style type="text/css">
	.st0{fill:none;}
</style>
<polygon points="5,6 0,1 0.7,0.3 5,4.6 9.3,0.3 10,1 "/>
<rect id="_x3C_Transparent_Rectangle_x3E_" class="st0" width="10" height="6"/>
</svg>
